…
The initial state contains all data needed to evaluate the annual bill
savings for each agent for all possible technology choices. It uses the
survey input data for owner-occupiers *hp_survey_oo*. A new initial
state is generated for each ABM run (randomisation). This ensures that
the results do not depend on a particular set of imputed variables.

``` r
library(hpmicrosimr)
initialise_agents(sD,2015, cal_run=sample(1:100,1))
#> Joining with `by = join_by(q6)`
#> Joining with `by = join_by(qc2)`
#> Joining with `by = join_by(q1)`
#> Joining with `by = join_by(serial)`
#> Joining with `by = join_by(qh)`
#> # A tibble: 796 × 15
#>    serial w_q52 w_q13 w_theta region  house_type    q2 construction_year   ber ground_floor_area income primary_heat heating_install_year
#>     <dbl> <dbl> <dbl>   <dbl> <chr>   <chr>      <dbl>             <dbl> <dbl>             <dbl>  <dbl> <chr>                       <dbl>
#>  1     71 0.639 0.976   1.17  Ulster… detached       2              2004 149.               85.1 78249. oil                          2010
#>  2     72 1.07  1.07    0.937 Dublin  semi_deta…     2              2003 119.               74.0 90743. gas                          2005
#>  3     74 1.52  1.07    0.665 Dublin  terraced       2              1972 199.               63.4 71771. gas                          2011
#>  4     75 1.19  1.24   -0.179 Dublin  apartment      2              2009  47.5              73.2 31211. gas                          2008
#>  5     77 1.37  1.49    0.140 Munster detached       2              1994 141.              129.  33831. gas                          2015
#>  6     79 1.34  1.38    0.785 Munster detached       2              1999 214.               75.7 71575. oil                          1999
#>  7     81 1.08  1.08    1.22  Munster detached       1              2003 309.              137.  87390. oil                          2004
#>  8     82 1.00  0.897   1.04  Ulster… detached       1              2008 159.               85.0 41574. solid_fuel                   1986
#>  9     84 1.04  1.16    0.462 Rest o… semi_deta…     2              1995 173.               84.6 26816. gas                          2005
#> 10     87 0.420 1.25    1.93  Rest o… detached       2              1985 349.              104.  27690. oil                          2003
#> # ℹ 786 more rows
#> # ℹ 2 more variables: secondary_heat1 <chr>, secondary_heat2 <chr>
```
